…
``` r
library(hydrocan)

# Sub-daily flow observations - source auto-detected from station number
hc_read_flows(
  station_number = "3-230",
  start_date = Sys.Date() - 7,
  end_date = Sys.Date()
)
#> iterating ■■■■■■■                           20% | ETA:  5s
#> # A tibble: 192 × 8
#>    station_number datetime            value parameter units source      approval
#>    <chr>          <dttm>              <dbl> <chr>     <chr> <chr>       <chr>   
#>  1 3-230          2026-04-16 00:00:00  191. flow      m3/s  hydroquebec <NA>    
#>  2 3-230          2026-04-16 00:00:00  191. flow      m3/s  hydroquebec <NA>    
#>  3 3-230          2026-04-16 01:00:00  191. flow      m3/s  hydroquebec <NA>    
#>  4 3-230          2026-04-16 01:00:00  191. flow      m3/s  hydroquebec <NA>    
#>  5 3-230          2026-04-16 02:00:00  191. flow      m3/s  hydroquebec <NA>    
#>  6 3-230          2026-04-16 02:00:00  191. flow      m3/s  hydroquebec <NA>    
#>  7 3-230          2026-04-16 03:00:00  191  flow      m3/s  hydroquebec <NA>    
#>  8 3-230          2026-04-16 03:00:00  191  flow      m3/s  hydroquebec <NA>    
#>  9 3-230          2026-04-16 04:00:00  191. flow      m3/s  hydroquebec <NA>    
#> 10 3-230          2026-04-16 04:00:00  191. flow      m3/s  hydroquebec <NA>    
#> # ℹ 182 more rows
#> # ℹ 1 more variable: quality_flag <chr>
…
